04_more_sequential/dump.vcd
$date
	Sat Mar 14 10:58:58 2026
$end
$version
	Icarus Verilog
$end
$timescale
	1s
$end
$scope module testbench $end
$var wire 1 ! down_first $end
$var wire 1 " down_transfer $end
$var wire 1 # up_ready $end
$var wire 1 $ up_transfer $end
$var wire 1 % was_reset $end
$var wire 1 & up_valid $end
$var wire 1 ' up_last $end
$var wire 1 ( up_first $end
$var wire 8 ) up_data [7:0] $end
$var wire 1 * down_valid $end
$var wire 1 + down_last $end
$var wire 8 , down_data [7:0] $end
$var parameter 1 - check_first $end
$var parameter 1 . check_last $end
$var parameter 1 / use_ready $end
$var parameter 1 0 use_valid $end
$var parameter 32 1 width $end
$var reg 1 2 clock $end
$var reg 33 3 down_count [32:0] $end
$var reg 1 4 down_ready $end
$var reg 8 5 expected_data [7:0] $end
$var reg 1 6 expected_first $end
$var reg 1 7 expected_last $end
$var reg 33 8 n_cycles [32:0] $end
$var reg 1 9 reset $end
$var reg 1 : reset_r $end
$var reg 1 ; sticky_reset_r $end
$var reg 33 < up_count [32:0] $end
$var reg 1 = up_enable $end
$var reg 32 > cycle [31:0] $end
$var reg 1 ? err $end
$scope module dut $end
$var wire 1 2 clock $end
$var wire 8 @ down_data [7:0] $end
$var wire 1 + down_last $end
$var wire 1 * down_valid $end
$var wire 1 9 reset $end
$var wire 1 & up_valid $end
$var wire 1 ( up_first $end
$var wire 8 A up_data [7:0] $end
$var parameter 32 B width $end
$var reg 1 C cnt $end
$var reg 8 D ddata_ff [7:0] $end
$upscope $end
$scope module upstream $end
$var wire 1 2 clock $end
$var wire 1 E ready $end
$var wire 1 9 reset $end
$var wire 1 = up_enable $end
$var wire 1 # up_ready $end
$var wire 1 & up_valid $end
$var wire 1 ' up_last $end
$var wire 1 ( up_first $end
$var wire 8 F up_data [7:0] $end
$var parameter 1 G use_valid $end
$var parameter 32 H width $end
$var reg 8 I data [7:0] $end
$var reg 1 J first $end
$var reg 1 K last $end
$var reg 1 L valid $end
$upscope $end
$scope begin $ivl_for_loop0 $end
$var integer 32 M i [31:0] $end
$upscope $end
$upscope $end
$enddefinitions $end
$comment Show the parameter values. $end
$dumpall
b1000 H
1G
b1000 B
b1000 1
10
0/
1.
0-
$end
#0
$dumpvars
b0 M
xL
xK
xJ
bx I
bx F
1E
bx D
xC
bx A
bx @
0?
b0 >
1=
bx <
0;
x:
x9
bx 8
x7
x6
bx 5
14
bx 3
02
bx ,
x+
x*
bx )
x(
x'
x&
0%
x$
1#
0"
z!
$end
#5
1$
1&
1L
14
b1 >
12
#10
02
#15
b1001110 )
b1001110 A
b1001110 F
1'
b10 >
b1001110 I
1K
12
#20
02
#25
0*
0C
0'
1+
1(
b1001110 ,
b1001110 @
b1001110 D
0K
1J
b11 >
19
12
#30
02
#35
x+
x(
x'
bx )
bx A
bx F
0$
b0 3
b0 <
b0 8
1:
1;
b100 >
b1000001 I
1K
0&
0L
12
#40
02
#45
b101 >
12
#50
02
#55
1%
09
b110 >
12
#60
02
#65
b111 >
0:
b1 8
12
#70
02
#75
1+
1(
1'
b1000001 )
b1000001 A
b1000001 F
1$
b10 8
b1000 >
1&
1L
12
#80
02
#85
x+
x(
x'
bx )
bx A
bx F
0$
b1000001 ,
b1000001 @
b1000001 D
1C
0&
0L
b1001 >
b1 <
b11 8
12
#90
02
#95
b100 8
b1010 >
12
#100
02
#105
1"
1+
1(
1'
b1000001 )
b1000001 A
b1000001 F
1*
1$
1&
1L
b1011 >
b101 8
12
#110
02
#115
b1001010 )
b1001010 A
b1001010 F
0'
b1 3
b10 <
b110 8
b1100 >
b1001010 I
0K
16
17
b1000001 5
12
#120
02
#125
b1000111 )
b1000111 A
b1000111 F
0+
0(
b1001010 ,
b1001010 @
b1001010 D
b1000111 I
0J
b1101 >
b10 3
b11 <
b111 8
12
#130
02
#135
b1001001 )
b1001001 A
b1001001 F
b1000111 ,
b1000111 @
b1000111 D
b11 3
b100 <
b1000 8
b1110 >
b1001001 I
07
b1001010 5
12
#140
02
#145
b1010011 )
b1010011 A
b1010011 F
1'
b1001001 ,
b1001001 @
b1001001 D
b1010011 I
1K
b1111 >
b100 3
b101 <
b1001 8
06
b1000111 5
12
#150
02
#155
b1001001 )
b1001001 A
b1001001 F
1+
1(
b1010011 ,
b1010011 @
b1010011 D
b101 3
b110 <
b1010 8
b10000 >
b1001001 I
1J
b1001001 5
12
#160
02
#165
b1001011 )
b1001011 A
b1001011 F
0'
b1001001 ,
b1001001 @
b1001001 D
b1001011 I
0K
b10001 >
b110 3
b111 <
b1011 8
17
b1010011 5
12
#170
02
#175
b1010101 )
b1010101 A
b1010101 F
0+
0(
b1001011 ,
b1001011 @
b1001011 D
b111 3
b1000 <
b1100 8
b10010 >
b1010101 I
0J
16
b1001001 5
12
#180
02
#185
0"
x+
x(
x'
bx )
bx A
bx F
0*
0$
b1010101 ,
b1010101 @
b1010101 D
b1011001 I
1K
0&
0L
b10011 >
b1000 3
b1001 <
b1101 8
07
b1001011 5
12
#190
02
#195
b1110 8
b10100 >
12
#200
02
#205
1"
0+
0(
1'
b1011001 )
b1011001 A
b1011001 F
1*
1$
1&
1L
b10101 >
b1111 8
12
#210
02
#215
b1000110 )
b1000110 A
b1000110 F
1+
1(
b1011001 ,
b1011001 @
b1011001 D
b1001 3
b1010 <
b10000 8
b10110 >
b1000110 I
1J
06
b1010101 5
12
#220
02
#225
b1000111 )
b1000111 A
b1000111 F
0'
b1000110 ,
b1000110 @
b1000110 D
b1000111 I
0K
b10111 >
b1010 3
b1011 <
b10001 8
17
b1011001 5
12
#230
02
#235
b1011001 )
b1011001 A
b1011001 F
0+
0(
b1000111 ,
b1000111 @
b1000111 D
b1011 3
b1100 <
b10010 8
b11000 >
b1011001 I
0J
16
b1000110 5
12
#240
02
#245
0"
x+
x(
x'
bx )
bx A
bx F
0*
0$
b1011001 ,
b1011001 @
b1011001 D
b1011010 I
0&
0L
b11001 >
b1100 3
b1101 <
b10011 8
07
b1000111 5
12
#250
02
#255
1"
0+
0(
0'
b1011010 )
b1011010 A
b1011010 F
1*
1$
b10100 8
b11010 >
1&
1L
12
#260
02
#265
b1000100 )
b1000100 A
b1000100 F
b1011010 ,
b1011010 @
b1011010 D
b1000100 I
b11011 >
b1101 3
b1110 <
b10101 8
06
b1011001 5
12
#270
02
#275
b1000101 )
b1000101 A
b1000101 F
b1000100 ,
b1000100 @
b1000100 D
b1110 3
b1111 <
b10110 8
b11100 >
b1000101 I
b1011010 5
12
#280
02
#285
b1000111 )
b1000111 A
b1000111 F
b1000101 ,
b1000101 @
b1000101 D
b1000111 I
b11101 >
b1111 3
b10000 <
b10111 8
b1000100 5
12
#290
02
#295
0"
x+
x(
x'
bx )
bx A
bx F
0*
0$
b1000111 ,
b1000111 @
b1000111 D
b10000 3
b10001 <
b11000 8
b11110 >
0&
0L
b1000101 5
12
#300
02
#305
1"
0+
0(
0'
b1000111 )
b1000111 A
b1000111 F
1*
1$
1&
1L
b11111 >
b11001 8
12
#310
02
#315
b10001 3
b10010 <
b11010 8
b100000 >
b1000111 5
12
#320
02
#325
b1010010 )
b1010010 A
b1010010 F
b1010010 I
b100001 >
b10010 3
b10011 <
b11011 8
12
#330
02
#335
b1001000 )
b1001000 A
b1001000 F
1'
b1010010 ,
b1010010 @
b1010010 D
b10011 3
b10100 <
b11100 8
b100010 >
b1001000 I
1K
12
#340
02
#345
0"
x+
x(
x'
bx )
bx A
bx F
0*
0$
b1001000 ,
b1001000 @
b1001000 D
b1000011 I
0K
1J
0&
0L
b100011 >
b10100 3
b10101 <
b11101 8
b1010010 5
12
#350
02
#355
1"
1+
1(
0'
b1000011 )
b1000011 A
b1000011 F
1*
1$
b11110 8
b100100 >
1&
1L
12
#360
02
#365
0"
x+
x(
x'
bx )
bx A
bx F
0*
0$
b1000011 ,
b1000011 @
b1000011 D
b1001100 I
0J
0&
0L
b100101 >
b10101 3
b10110 <
b11111 8
17
b1001000 5
12
#370
02
#375
b100000 8
b100110 >
12
#380
02
#385
1"
0+
0(
0'
b1001100 )
b1001100 A
b1001100 F
1*
1$
1&
1L
b100111 >
b100001 8
12
#390
02
#395
b1001100 ,
b1001100 @
b1001100 D
b10110 3
b10111 <
b100010 8
b101000 >
16
07
b1000011 5
12
#400
02
#405
b1010110 )
b1010110 A
b1010110 F
b1010110 I
b101001 >
b10111 3
b11000 <
b100011 8
06
b1001100 5
12
#410
02
#415
b1001000 )
b1001000 A
b1001000 F
b1010110 ,
b1010110 @
b1010110 D
b11000 3
b11001 <
b100100 8
b101010 >
b1001000 I
12
#420
02
#425
0"
x+
x(
x'
bx )
bx A
bx F
0*
0$
b1001000 ,
b1001000 @
b1001000 D
b1000110 I
0&
0L
b101011 >
b11001 3
b11010 <
b100101 8
b1010110 5
12
#430
02
#435
1"
0+
0(
0'
b1000110 )
b1000110 A
b1000110 F
1*
1$
b100110 8
b101100 >
1&
1L
12
#440
02
#445
0"
x+
x(
x'
bx )
bx A
bx F
0*
0$
b1000110 ,
b1000110 @
b1000110 D
b1010101 I
0&
0L
b101101 >
b11010 3
b11011 <
b100111 8
b1001000 5
12
#450
02
#455
b101000 8
b101110 >
12
#460
02
#465
b101111 >
b101001 8
12
#470
02
#475
1"
0+
0(
0'
b1010101 )
b1010101 A
b1010101 F
1*
1$
b101010 8
b110000 >
1&
1L
12
#480
02
#485
b1010111 )
b1010111 A
b1010111 F
b1010101 ,
b1010101 @
b1010101 D
b1010111 I
b110001 >
b11011 3
b11100 <
b101011 8
b1000110 5
12
#490
02
#495
0"
x+
x(
x'
bx )
bx A
bx F
0*
0$
b1010111 ,
b1010111 @
b1010111 D
b11100 3
b11101 <
b101100 8
b110010 >
b1001110 I
1K
0&
0L
b1010101 5
12
#500
02
#505
1"
0+
0(
1'
b1001110 )
b1001110 A
b1001110 F
1*
1$
1&
1L
b110011 >
b101101 8
12
#510
02
#515
0"
x+
x(
x'
bx )
bx A
bx F
0*
0$
b1001110 ,
b1001110 @
b1001110 D
b11101 3
b11110 <
b101110 8
b110100 >
b1000011 I
0K
1J
0&
0L
b1010111 5
12
#520
02
#525
1"
1+
1(
0'
b1000011 )
b1000011 A
b1000011 F
1*
1$
1&
1L
b110101 >
b101111 8
12
#530
02
#535
b1010000 )
b1010000 A
b1010000 F
0+
0(
b1000011 ,
b1000011 @
b1000011 D
b11110 3
b11111 <
b110000 8
b110110 >
b1010000 I
0J
17
b1001110 5
12
#540
02
#545
b1010011 )
b1010011 A
b1010011 F
1'
b1010000 ,
b1010000 @
b1010000 D
b1010011 I
1K
b110111 >
b11111 3
b100000 <
b110001 8
16
07
b1000011 5
12
#550
02
#555
b1010111 )
b1010111 A
b1010111 F
1+
1(
b1010011 ,
b1010011 @
b1010011 D
b100000 3
b100001 <
b110010 8
b111000 >
b1010111 I
1J
06
b1010000 5
12
#560
02
#565
0"
x+
x(
x'
bx )
bx A
bx F
0*
0$
b1010111 ,
b1010111 @
b1010111 D
b1001010 I
0&
0L
b111001 >
b100001 3
b100010 <
b110011 8
17
b1010011 5
12
#570
02
#575
b110100 8
b111010 >
12
#580
02
#585
1"
1+
1(
1'
b1001010 )
b1001010 A
b1001010 F
1*
1$
1&
1L
b111011 >
b110101 8
12
#590
02
#595
b1011001 )
b1011001 A
b1011001 F
0'
b1001010 ,
b1001010 @
b1001010 D
b100010 3
b100011 <
b110110 8
b111100 >
b1011001 I
0K
16
b1010111 5
12
#600
02
#605
0"
x+
x(
x'
bx )
bx A
bx F
0*
0$
b1011001 ,
b1011001 @
b1011001 D
b1001011 I
0J
0&
0L
b111101 >
b100011 3
b100100 <
b110111 8
b1001010 5
12
#610
02
#615
b111000 8
b111110 >
12
#620
02
#625
1"
0+
0(
0'
b1001011 )
b1001011 A
b1001011 F
1*
1$
1&
1L
b111111 >
b111001 8
12
#630
02
#635
b1000101 )
b1000101 A
b1000101 F
b1001011 ,
b1001011 @
b1001011 D
b100100 3
b100101 <
b111010 8
b1000000 >
b1000101 I
07
b1011001 5
12
#640
02
#645
b1001011 )
b1001011 A
b1001011 F
b1000101 ,
b1000101 @
b1000101 D
b1001011 I
b1000001 >
b100101 3
b100110 <
b111011 8
06
b1001011 5
12
#650
02
#655
b1000110 )
b1000110 A
b1000110 F
b1001011 ,
b1001011 @
b1001011 D
b100110 3
b100111 <
b111100 8
b1000010 >
b1000110 I
b1000101 5
12
#660
02
#665
0"
x+
x(
x'
bx )
bx A
bx F
0*
0$
b1000110 ,
b1000110 @
b1000110 D
b1010110 I
0&
0L
b1000011 >
b100111 3
b101000 <
b111101 8
b1001011 5
12
#670
02
#675
1"
0+
0(
0'
b1010110 )
b1010110 A
b1010110 F
1*
1$
b111110 8
b1000100 >
1&
1L
12
#680
02
#685
b1010000 )
b1010000 A
b1010000 F
b1010110 ,
b1010110 @
b1010110 D
b1010000 I
b1000101 >
b101000 3
b101001 <
b111111 8
b1000110 5
12
#690
02
#695
b1000011 )
b1000011 A
b1000011 F
b1010000 ,
b1010000 @
b1010000 D
b101001 3
b101010 <
b1000000 8
b1000110 >
b1000011 I
b1010110 5
12
#700
02
#705
0"
x+
x(
x'
bx )
bx A
bx F
0*
0$
b1000011 ,
b1000011 @
b1000011 D
b1010011 I
0&
0L
b1000111 >
b101010 3
b101011 <
b1000001 8
b1010000 5
12
#710
02
#715
1"
0+
0(
0'
b1010011 )
b1010011 A
b1010011 F
1*
1$
b1000010 8
b1001000 >
1&
1L
12
#720
02
#725
0"
x+
x(
x'
bx )
bx A
bx F
0*
0$
b1010011 ,
b1010011 @
b1010011 D
b1010101 I
0&
0L
b1001001 >
b101011 3
b101100 <
b1000011 8
b1000011 5
12
#730
02
#735
1"
0+
0(
0'
b1010101 )
b1010101 A
b1010101 F
1*
1$
b1000100 8
b1001010 >
1&
1L
12
#740
02
#745
0"
x+
x(
x'
bx )
bx A
bx F
0*
0$
b1010101 ,
b1010101 @
b1010101 D
b1010000 I
0&
0L
b1001011 >
b101100 3
b101101 <
b1000101 8
b1010011 5
12
#750
02
#755
1"
0+
0(
0'
b1010000 )
b1010000 A
b1010000 F
1*
1$
b1000110 8
b1001100 >
1&
1L
12
#760
02
#765
0"
x+
x(
x'
bx )
bx A
bx F
0*
0$
b1010000 ,
b1010000 @
b1010000 D
b1001001 I
0&
0L
b1001101 >
b101101 3
b101110 <
b1000111 8
b1010101 5
12
#770
02
#775
b1001000 8
b1001110 >
12
#780
02
#785
1"
0+
0(
0'
b1001001 )
b1001001 A
b1001001 F
1*
1$
1&
1L
b1001111 >
b1001001 8
12
#790
02
#795
0"
x+
x(
x'
bx )
bx A
bx F
0*
0$
b1001001 ,
b1001001 @
b1001001 D
b101110 3
b101111 <
b1001010 8
b1010000 >
b1000110 I
0&
0L
b1010000 5
12
#800
02
#805
b1010001 >
b1001011 8
12
#810
02
#815
1"
0+
0(
0'
b1000110 )
b1000110 A
b1000110 F
1*
1$
b1001100 8
b1010010 >
1&
1L
12
#820
02
#825
b1010001 )
b1010001 A
b1010001 F
1'
b1000110 ,
b1000110 @
b1000110 D
b1010001 I
1K
b1010011 >
b101111 3
b110000 <
b1001101 8
b1001001 5
12
#830
02
#835
b1001110 )
b1001110 A
b1001110 F
1+
1(
b1010001 ,
b1010001 @
b1010001 D
b110000 3
b110001 <
b1001110 8
b1010100 >
b1001110 I
1J
b1000110 5
12
#840
02
#845
0"
x+
x(
x'
bx )
bx A
bx F
0*
0$
b1001110 ,
b1001110 @
b1001110 D
b1000100 I
0&
0L
b1010101 >
b110001 3
b110010 <
b1001111 8
17
b1010001 5
12
#850
02
#855
1"
1+
1(
1'
b1000100 )
b1000100 A
b1000100 F
1*
1$
b1010000 8
b1010110 >
1&
1L
12
#860
02
#865
b1001100 )
b1001100 A
b1001100 F
b1000100 ,
b1000100 @
b1000100 D
b1001100 I
b1010111 >
b110010 3
b110011 <
b1010001 8
16
b1001110 5
12
#870
02
#875
0'
b1001100 ,
b1001100 @
b1001100 D
b110011 3
b110100 <
b1010010 8
b1011000 >
0K
b1000100 5
12
#880
02
#885
b1001001 )
b1001001 A
b1001001 F
0+
0(
b1001001 I
0J
b1011001 >
b110100 3
b110101 <
b1010011 8
b1001100 5
12
#890
02
#895
b1011000 )
b1011000 A
b1011000 F
b1001001 ,
b1001001 @
b1001001 D
b110101 3
b110110 <
b1010100 8
b1011010 >
b1011000 I
07
12
#900
02
#905
b1010010 )
b1010010 A
b1010010 F
1'
b1011000 ,
b1011000 @
b1011000 D
b1010010 I
1K
b1011011 >
b110110 3
b110111 <
b1010101 8
06
b1001001 5
12
#910
02
#915
b1000001 )
b1000001 A
b1000001 F
0'
1+
1(
b1010010 ,
b1010010 @
b1010010 D
b110111 3
b111000 <
b1010110 8
b1011100 >
b1000001 I
0K
1J
b1011000 5
12
#920
02
#925
0"
x+
x(
x'
bx )
bx A
bx F
0*
0$
b1000001 ,
b1000001 @
b1000001 D
b1010000 I
0J
0&
0L
b1011101 >
b111000 3
b111001 <
b1010111 8
17
b1010010 5
12
#930
02
#935
b1011000 8
b1011110 >
12
#940
02
#945
b1011111 >
b1011001 8
12
#950
02
#955
1"
0+
0(
0'
b1010000 )
b1010000 A
b1010000 F
1*
1$
b1011010 8
b1100000 >
1&
1L
12
#960
02
#965
b1011000 )
b1011000 A
b1011000 F
b1010000 ,
b1010000 @
b1010000 D
b1011000 I
b1100001 >
b111001 3
b111010 <
b1011011 8
16
07
b1000001 5
12
#970
02
#975
0"
x+
x(
x'
bx )
bx A
bx F
0*
0$
b1011000 ,
b1011000 @
b1011000 D
b111010 3
b111011 <
b1011100 8
b1100010 >
b1010000 I
0&
0L
06
b1010000 5
12
#980
02
#985
b1100011 >
b1011101 8
12
#990
02
#995
1"
0+
0(
0'
b1010000 )
b1010000 A
b1010000 F
1*
1$
b1011110 8
b1100100 >
1&
1L
12
#1000
02
#1005
b1010100 )
b1010100 A
b1010100 F
1'
b1010000 ,
b1010000 @
b1010000 D
b1010100 I
1K
b1100101 >
b111011 3
b111100 <
b1011111 8
b1011000 5
12
#1010
02
#1015
0"
x+
x(
x'
bx )
bx A
bx F
0*
0$
b1010100 ,
b1010100 @
b1010100 D
b111100 3
b111101 <
b1100000 8
b1100110 >
b1010001 I
0K
1J
0&
0L
b1010000 5
12
#1020
02
#1025
1"
1+
1(
0'
b1010001 )
b1010001 A
b1010001 F
1*
1$
1&
1L
b1100111 >
b1100001 8
12
#1030
02
#1035
0"
x+
x(
x'
bx )
bx A
bx F
0*
0$
b1010001 ,
b1010001 @
b1010001 D
b111101 3
b111110 <
b1100010 8
b1101000 >
b1010000 I
0J
0&
0L
17
b1010100 5
12
#1040
02
#1045
1"
0+
0(
0'
b1010000 )
b1010000 A
b1010000 F
1*
1$
1&
1L
b1101001 >
b1100011 8
12
#1050
02
#1055
0"
x+
x(
x'
bx )
bx A
bx F
0*
0$
b1010000 ,
b1010000 @
b1010000 D
b111110 3
b111111 <
b1100100 8
b1101010 >
b1001100 I
0&
0L
0=
16
07
b1010001 5
12
#1060
02
#1065
b1101011 >
b1100101 8
12
#1070
02
#1075
b1100110 8
b1101100 >
12
#1080
02
#1085
b1101101 >
b1100111 8
12
#1090
02
#1095
b1101000 8
b1101110 >
12
#1100
02
#1105
b1101111 >
b1101001 8
12
#1110
02
#1115
b1101010 8
b1110000 >
12
#1120
02
#1125
b1110001 >
b1101011 8
12
#1130
02
#1135
b1101100 8
b1110010 >
12
#1140
02
#1145
b1110011 >
b1101101 8
12
#1150
02
#1155
b1101110 8
b1110100 >
12
